/Users/hashan/Desktop/Buddhini/Majlis/Majlis-NotificationManagement/src/main/java/com/dmssw/majlis/controller/NotificationController.java
/Users/hashan/Desktop/Buddhini/Majlis/Majlis-NotificationManagement/src/main/java/com/dmssw/majlis/config/AppParams.java
/Users/hashan/Desktop/Buddhini/Majlis/Majlis-NotificationManagement/src/main/java/com/dmssw/majlis/service/NotificationService.java
/Users/hashan/Desktop/Buddhini/Majlis/Majlis-NotificationManagement/src/main/java/com/dmssw/majlis/controller/ResponseData.java
/Users/hashan/Desktop/Buddhini/Majlis/Majlis-NotificationManagement/src/main/java/com/dmssw/entities/Notification.java
/Users/hashan/Desktop/Buddhini/Majlis/Majlis-NotificationManagement/src/main/java/com/dmssw/majlis/config/AppConfig.java
